<?xml version="1.0" standalone="no"?>
<!DOCTYPE svg PUBLIC "-//W3C//DTD SVG 20010904//EN"
 "http://www.w3.org/TR/2001/REC-SVG-20010904/DTD/svg10.dtd">
<svg version="1.0" xmlns="http://www.w3.org/2000/svg"
 width="1000.000000pt" height="500.000000pt" viewBox="0 0 1000.000000 500.000000"
 preserveAspectRatio="xMidYMid meet">

<g transform="translate(0.000000,500.000000) scale(0.100000,-0.100000)"
fill="#000000" stroke="none">
<path d="M3060 3640 l0 -810 515 0 c338 0 532 4 567 11 115 24 205 93 257 196
47 93 51 140 51 594 0 265 -4 448 -11 484 -33 179 -142 293 -309 325 -31 6
-262 10 -561 10 l-509 0 0 -810z m1110 415 c60 -31 61 -40 58 -430 l-3 -355
-28 -27 -27 -28 -445 -3 -445 -3 0 431 0 430 430 0 c366 0 435 -2 460 -15z"/>
<path d="M5010 4439 c-115 -22 -229 -118 -269 -223 -39 -104 -42 -163 -39
-616 3 -415 5 -438 25 -499 42 -123 110 -197 224 -244 52 -21 70 -22 409 -25
241 -2 374 0 415 8 119 23 210 91 264 197 44 89 51 148 51 481 l0 312 -515 0
-515 0 0 -190 0 -190 406 0 406 0 -4 -90 c-3 -82 -5 -92 -31 -117 l-27 -28
-400 -3 c-446 -3 -448 -3 -476 63 -21 50 -21 680 0 730 27 64 32 65 461 65
325 0 391 -2 415 -15 30 -15 60 -61 60 -90 0 -13 17 -15 110 -15 l110 0 0 53
c0 130 -48 265 -120 337 -48 48 -122 85 -200 100 -64 12 -697 11 -760 -1z"/>
<path d="M6350 3640 l0 -810 515 0 c338 0 532 4 567 11 115 24 205 93 257 196
47 93 51 140 51 594 0 265 -4 448 -11 484 -33 179 -142 293 -309 325 -31 6
-262 10 -561 10 l-509 0 0 -810z m1110 415 c60 -31 61 -40 58 -430 l-3 -355
-28 -27 -27 -28 -445 -3 -445 -3 0 431 0 430 430 0 c366 0 435 -2 460 -15z"/>
<path d="M8000 3640 l0 -810 110 0 110 0 2 632 3 632 409 -632 410 -632 173 0
173 0 0 810 0 810 -110 0 -110 0 -2 -632 -3 -632 -409 632 -408 632 -174 0
-174 0 0 -810z"/>
<path d="M1220 4411 c-580 -119 -1039 -793 -1109 -1626 -6 -71 -13 -152 -15
-180 -6 -67 20 -398 40 -510 110 -621 423 -1123 828 -1327 308 -155 639 -143
936 35 425 254 728 825 790 1487 18 196 19 291 5 451 -23 250 -40 341 -115
604 -17 61 -62 173 -109 270 -180 377 -452 649 -761 761 -151 54 -332 67 -490
35z m375 -86 c232 -58 438 -200 608 -420 211 -273 334 -588 403 -1030 24 -152
23 -516 0 -670 -48 -307 -105 -497 -221 -730 -87 -174 -171 -296 -287 -413
-110 -113 -193 -174 -313 -232 -140 -68 -241 -93 -385 -92 -241 0 -451 91
-653 282 -365 346 -570 895 -570 1525 0 290 37 524 123 787 235 714 769 1124
1295 993z"/>
<path d="M1363 4083 c-13 -5 -18 -79 -7 -107 7 -17 44 -22 44 -6 0 6 -6 10
-14 10 -23 0 -31 22 -12 36 11 8 13 14 7 19 -19 11 -12 35 10 35 11 0 17 5 14
10 -7 11 -22 12 -42 3z"/>
<path d="M1630 4080 c0 -5 5 -10 10 -10 6 0 10 5 10 10 0 6 -4 10 -10 10 -5 0
-10 -4 -10 -10z"/>
<path d="M1272 4023 c3 -50 6 -58 24 -61 32 -5 45 18 36 69 -7 39 -11 44 -35
47 l-28 3 3 -58z m38 21 c0 -9 -5 -14 -12 -12 -18 6 -21 28 -4 28 9 0 16 -7
16 -16z m8 -46 c-6 -18 -25 -20 -31 -3 -5 10 0 15 14 15 12 0 19 -5 17 -12z"/>
<path d="M1437 4073 c-12 -11 -8 -105 3 -98 6 4 8 10 5 15 -3 5 -1 11 5 15 5
3 10 2 10 -2 0 -5 7 -18 16 -29 15 -18 15 -18 10 8 -4 15 -1 36 6 47 9 15 9
23 -1 35 -14 16 -42 21 -54 9z m41 -21 c2 -7 -3 -12 -12 -12 -9 0 -16 7 -16
16 0 17 22 14 28 -4z"/>
<path d="M1520 4071 c0 -6 4 -12 9 -15 4 -3 5 -25 1 -48 -5 -24 -6 -45 -4 -48
9 -9 24 25 24 57 0 17 5 33 12 35 6 2 8 10 4 16 -9 14 -46 16 -46 3z"/>
<path d="M1226 4023 c4 -27 11 -52 17 -58 6 -7 8 3 3 30 -3 22 -6 48 -6 58 0
9 -4 17 -10 17 -6 0 -7 -19 -4 -47z"/>
<path d="M1596 4048 c-25 -88 -25 -92 -13 -100 17 -11 47 -10 47 2 0 6 -7 10
-15 10 -20 0 -19 27 1 38 11 6 13 11 5 16 -18 11 -13 26 10 26 11 0 17 5 14
10 -9 14 -45 12 -49 -2z"/>
<path d="M1154 4014 c4 -21 9 -47 12 -56 6 -19 39 -24 49 -8 3 6 -1 10 -9 10
-18 0 -36 30 -36 59 0 11 -5 23 -11 27 -9 5 -10 -4 -5 -32z"/>
<path d="M1060 4033 c-54 -20 -177 -85 -240 -127 -64 -42 -290 -250 -290 -266
0 -4 33 -46 73 -94 l72 -88 75 6 c41 3 78 10 83 15 11 11 -42 103 -55 95 -4
-3 4 -21 18 -41 29 -42 27 -44 -55 -57 l-45 -7 -73 78 c-40 43 -73 84 -73 90
0 7 33 46 73 86 124 123 245 208 380 267 42 18 77 37 77 42 0 4 -1 8 -2 7 -2
0 -10 -3 -18 -6z"/>
<path d="M1711 4002 c-6 -20 -13 -56 -17 -80 l-7 -43 -46 5 c-44 5 -45 5 -13
-6 35 -12 43 -28 14 -28 -10 0 -23 -5 -29 -11 -7 -7 -19 -9 -27 -6 -13 5 -14
12 -6 32 6 15 10 28 10 30 0 7 -131 25 -189 25 -72 0 -191 -21 -191 -33 0 -5
7 -6 16 -3 38 15 163 27 219 21 114 -11 115 -12 115 -55 0 -25 5 -40 16 -44
22 -9 36 -7 30 3 -3 5 14 16 38 25 30 11 46 24 49 39 3 12 11 48 17 80 9 43
16 57 29 57 33 0 196 -87 281 -150 47 -34 122 -101 168 -148 45 -47 82 -82 82
-78 0 29 -171 192 -281 267 -56 38 -189 109 -241 128 -26 10 -28 8 -37 -27z"/>
<path d="M1764 3879 c-14 -28 -23 -53 -20 -56 8 -8 26 7 26 23 0 11 6 13 20 9
41 -13 67 35 33 61 -27 20 -31 18 -59 -37z m51 1 c-5 -8 -11 -8 -17 -2 -6 6
-7 16 -3 22 5 8 11 8 17 2 6 -6 7 -16 3 -22z"/>
<path d="M980 3915 c0 -3 11 -28 25 -56 24 -46 27 -49 48 -37 l22 13 -23 3
c-16 2 -28 16 -38 43 -9 21 -20 39 -25 39 -5 0 -9 -2 -9 -5z"/>
<path d="M940 3895 c0 -16 46 -95 56 -95 7 0 2 19 -14 50 -21 42 -42 64 -42
45z"/>
<path d="M1133 3883 c-13 -2 -23 -8 -23 -13 0 -19 19 -19 56 0 32 17 34 20 14
19 -14 -1 -35 -4 -47 -6z"/>
<path d="M1863 3869 c-6 -6 -9 -19 -6 -28 3 -11 2 -13 -4 -3 -7 9 -15 6 -33
-13 -23 -24 -21 -50 2 -27 18 18 26 15 31 -10 3 -23 3 -23 14 2 28 66 25 108
-4 79z"/>
<path d="M885 3853 c4 -10 12 -34 17 -53 12 -43 28 -62 28 -34 0 28 10 36 27
22 28 -23 21 -1 -13 40 -36 43 -73 58 -59 25z"/>
<path d="M1916 3845 c3 -8 -4 -28 -16 -45 -12 -17 -20 -36 -18 -42 2 -6 15 4
28 23 13 19 30 40 39 47 14 11 14 14 1 22 -23 14 -40 12 -34 -5z"/>
<path d="M843 3835 c2 -11 8 -29 12 -40 7 -18 5 -17 -18 4 -15 14 -30 21 -34
17 -9 -9 77 -87 88 -80 9 5 -23 90 -40 107 -11 10 -13 8 -8 -8z"/>
<path d="M1220 3832 c-8 -3 -21 -11 -29 -19 -11 -12 -9 -13 15 -7 34 8 37 10
33 22 -2 5 -11 7 -19 4z"/>
<path d="M1948 3779 c-32 -45 -37 -76 -8 -40 21 24 23 22 21 -19 -1 -24 -1
-24 10 -5 7 11 23 29 37 41 21 17 23 23 13 42 -17 33 -43 26 -73 -19z m54 -11
c-15 -15 -26 -4 -18 18 5 13 9 15 18 6 9 -9 9 -15 0 -24z"/>
<path d="M1628 3793 c7 -3 16 -2 19 1 4 3 -2 6 -13 5 -11 0 -14 -3 -6 -6z"/>
<path d="M760 3786 c0 -2 9 -25 21 -51 11 -25 18 -49 15 -52 -8 -8 -36 17 -36
33 0 7 -9 18 -19 24 -15 7 -25 5 -43 -9 l-23 -20 39 -40 c37 -38 64 -50 36
-16 -17 21 -7 29 20 15 28 -15 53 4 44 32 -5 18 -3 19 28 13 l33 -6 -45 40
c-38 34 -70 51 -70 37z m-22 -77 c-2 -6 -8 -10 -13 -10 -5 0 -11 4 -13 10 -2
6 4 11 13 11 9 0 15 -5 13 -11z"/>
<path d="M1715 3762 c102 -46 259 -148 280 -182 4 -6 -4 -28 -16 -50 -14 -25
-19 -44 -13 -49 13 -13 142 -29 156 -19 15 9 -112 134 -208 203 -61 45 -220
125 -245 125 -8 0 13 -13 46 -28z m350 -242 c21 -22 36 -42 33 -45 -5 -5 -108
12 -116 19 -5 6 30 66 38 66 3 0 23 -18 45 -40z"/>
<path d="M2021 3731 c-18 -22 -31 -46 -29 -52 2 -6 18 8 36 31 19 22 32 46 30
52 -2 6 -19 -8 -37 -31z"/>
<path d="M2051 3696 c-41 -42 -42 -42 -21 -61 23 -21 39 -13 21 9 -16 20 -4
38 19 31 14 -5 17 -2 13 13 -5 22 12 39 22 22 7 -12 25 -14 25 -2 0 4 -8 12
-19 19 -16 10 -24 5 -60 -31z"/>
<path d="M647 3682 c-20 -22 -21 -32 -5 -32 7 0 27 -14 45 -32 45 -44 55 -26
11 20 -20 20 -33 43 -31 50 7 17 -1 15 -20 -6z"/>
<path d="M980 3426 c-41 -12 -128 -43 -192 -69 -158 -63 -219 -78 -308 -76
l-75 2 4 -29 c1 -16 5 -32 8 -36 8 -14 161 -8 210 8 78 25 257 96 270 107 9 6
16 1 23 -18 20 -53 15 -58 -98 -105 -150 -62 -252 -90 -329 -90 -55 0 -64 -2
-59 -16 3 -9 6 -25 6 -36 0 -20 4 -21 88 -16 80 5 106 12 253 71 180 71 240
87 329 87 71 0 68 -8 43 140 l-16 100 -41 -1 c-23 0 -75 -10 -116 -23z m65
-46 c4 -14 15 -20 36 -20 33 0 36 -6 13 -31 -12 -13 -13 -22 -5 -38 19 -35 13
-45 -16 -26 -25 17 -27 17 -39 0 -17 -23 -33 -12 -27 19 4 18 0 26 -16 31 -28
9 -26 21 4 29 18 5 25 13 25 31 0 30 16 33 25 5z"/>
<path d="M1666 3438 c-5 -16 -36 -210 -36 -220 0 -5 30 -8 66 -8 85 0 156 -19
307 -81 148 -61 217 -79 296 -79 58 0 61 1 63 25 0 14 1 30 2 37 1 8 -14 11
-46 9 -63 -3 -154 21 -311 83 -128 51 -132 53 -130 81 4 55 8 56 70 29 175
-78 236 -96 341 -101 95 -5 102 -4 102 13 0 11 3 28 6 39 5 19 1 20 -69 17
-93 -5 -156 11 -346 87 -80 32 -167 63 -193 70 -62 15 -118 14 -122 -1z m114
-63 c0 -18 7 -26 25 -31 30 -7 31 -15 5 -32 -15 -9 -19 -19 -14 -37 7 -29 -2
-32 -27 -9 -16 14 -20 14 -43 -1 -28 -19 -34 -9 -15 26 8 16 7 25 -5 38 -23
25 -20 31 13 31 21 0 32 6 36 20 9 28 25 25 25 -5z"/>
<path d="M1005 3105 c-49 -13 -141 -44 -202 -69 -149 -60 -236 -86 -287 -86
-52 0 -54 -2 -48 -40 4 -28 7 -30 44 -30 58 0 144 25 287 82 182 73 251 91
333 86 l69 -4 -7 31 c-3 16 -9 33 -13 37 -16 17 -92 14 -176 -7z"/>
<path d="M1633 3120 c-13 -5 -23 -15 -23 -22 0 -7 -3 -22 -6 -34 -5 -19 -2
-20 57 -16 83 6 147 -10 321 -79 166 -65 246 -89 307 -89 34 0 41 3 41 19 0
11 2 26 5 34 5 11 -9 15 -62 20 -65 6 -171 40 -328 105 -116 48 -270 79 -312
62z"/>
<path d="M1427 2554 c-4 -4 -7 -18 -7 -30 0 -19 6 -23 38 -26 l37 -3 1 -100 2
-100 28 0 29 0 3 103 3 102 35 0 c33 0 35 2 32 28 l-3 27 -95 3 c-53 1 -99 0
-103 -4z"/>
<path d="M1192 2423 l3 -128 28 -3 c26 -3 27 -2 27 42 0 41 2 46 23 46 17 0
28 -11 45 -45 19 -39 26 -45 52 -45 36 0 37 8 9 61 -20 41 -20 41 -1 55 29 20
37 66 18 102 -20 38 -31 42 -127 42 l-80 0 3 -127z m148 62 c19 -22 -5 -45
-47 -45 -35 0 -50 17 -39 45 3 9 18 15 39 15 19 0 40 -7 47 -15z"/>
<path d="M1820 2211 c0 -6 -15 -11 -32 -11 -31 -1 -32 -1 -14 -15 19 -14 18
-15 -10 -15 -37 0 -69 -22 -89 -60 -19 -37 -19 -44 1 -36 13 5 14 2 8 -11 -4
-10 -9 -38 -11 -63 -4 -43 -3 -44 13 -25 15 19 16 17 10 -43 -3 -35 -2 -61 3
-58 16 10 30 -41 34 -129 2 -50 0 -101 -5 -114 -4 -13 -31 -52 -59 -87 -52
-66 -83 -80 -108 -50 -16 19 -5 40 64 126 68 85 75 99 75 157 0 77 -41 98 -80
43 -12 -16 -30 -30 -39 -30 -26 0 -38 -18 -51 -75 -6 -27 -16 -55 -22 -62 -8
-10 -5 -13 11 -13 13 0 29 12 40 31 11 17 30 36 43 43 17 9 24 22 28 56 4 37
9 45 25 45 31 0 31 -48 1 -98 -13 -23 -47 -69 -75 -101 -61 -72 -72 -112 -43
-154 13 -17 20 -42 19 -63 -1 -19 2 -44 6 -56 9 -24 -5 -40 -73 -85 -31 -21
-35 -29 -38 -74 -2 -36 1 -54 13 -64 8 -7 15 -16 15 -21 0 -5 11 -27 25 -49
23 -36 29 -40 68 -40 58 0 74 12 60 43 -10 22 -16 25 -51 20 -35 -5 -40 -3
-45 18 -16 57 -10 67 58 99 66 31 115 81 115 116 0 24 17 51 26 42 6 -7 -5
-63 -21 -100 -5 -14 -2 -18 14 -18 11 0 35 -13 52 -28 27 -24 30 -31 21 -49
-9 -16 -8 -24 3 -33 8 -7 19 -27 23 -44 6 -23 15 -32 33 -34 13 -2 33 -7 44
-12 23 -11 41 -9 70 7 20 11 20 12 -4 37 -18 19 -30 24 -51 19 -39 -7 -53 22
-45 92 l7 54 -56 63 c-64 72 -74 112 -32 128 13 5 27 17 30 27 3 10 29 32 58
50 29 17 63 42 76 56 l23 25 -25 27 c-24 25 -34 55 -20 55 3 0 16 -13 30 -29
31 -38 102 -57 151 -40 19 6 36 9 38 7 7 -7 -26 -120 -46 -160 -21 -42 -24
-73 -8 -83 16 -10 23 3 10 18 -9 11 -6 25 14 64 28 54 57 152 49 165 -3 4 6
12 20 18 20 7 26 17 26 39 0 16 -4 33 -10 36 -5 3 -10 35 -10 70 0 65 -21 188
-41 238 -19 45 -21 25 -5 -44 8 -35 18 -103 21 -150 7 -85 7 -86 -20 -107 -36
-29 -45 -28 -46 6 l-1 27 -7 -30 c-6 -27 -11 -31 -41 -26 -19 2 -10 29 20 58
17 15 30 33 30 40 0 6 9 18 19 25 24 17 22 55 -5 95 -17 26 -18 27 -24 8 -11
-38 -48 -113 -59 -119 -6 -4 -11 -20 -11 -37 0 -16 -4 -29 -10 -29 -5 0 -10
13 -10 28 0 15 -9 45 -20 67 -21 42 -20 55 5 35 13 -11 15 -9 15 14 0 23 -8
31 -53 50 -52 24 -85 51 -74 62 3 3 18 -3 34 -15 39 -28 76 -31 81 -7 3 14 0
17 -12 13 -19 -8 -56 12 -56 30 0 17 39 27 55 13 14 -12 19 -8 34 34 10 24 7
28 -29 51 -22 14 -47 25 -55 25 -11 0 -14 7 -10 23 7 31 -8 50 -42 52 -15 2
-36 6 -45 10 -11 4 -18 3 -18 -4z m148 -128 c5 -17 -26 -29 -40 -15 -6 6 -7
15 -3 22 9 14 37 9 43 -7z"/>
<path d="M950 2200 c-8 -5 -22 -7 -31 -5 -22 7 -53 -30 -46 -55 3 -13 0 -20
-9 -20 -8 0 -32 -11 -54 -25 -36 -23 -39 -27 -29 -51 15 -42 19 -45 39 -34 22
12 50 3 50 -16 0 -18 -34 -36 -54 -28 -10 4 -16 1 -16 -9 0 -8 6 -17 13 -20
16 -5 68 12 90 31 9 8 17 11 17 5 0 -18 -35 -43 -83 -59 -52 -18 -51 -17 -61
-58 l-7 -29 25 17 c31 20 31 20 6 -35 -11 -24 -20 -57 -20 -72 0 -16 -4 -26
-10 -22 -5 3 -10 19 -10 34 0 15 -4 31 -10 37 -17 17 -59 107 -54 116 11 18
-8 6 -32 -19 -13 -14 -27 -23 -31 -20 -8 9 25 168 39 184 5 7 8 20 6 30 -3 12
-11 3 -25 -29 -28 -61 -57 -234 -51 -299 4 -40 2 -49 -9 -45 -14 6 -17 1 -27
-47 -6 -24 -3 -29 23 -38 25 -9 33 -20 46 -67 9 -31 28 -78 41 -104 20 -39 22
-52 13 -69 -9 -17 -8 -20 3 -17 20 7 21 43 2 80 -17 33 -44 121 -44 146 0 10
7 9 29 -3 19 -9 32 -11 36 -5 3 6 20 10 37 10 21 0 40 10 65 35 19 19 37 35
39 35 8 0 -10 -37 -29 -58 l-21 -22 30 -31 c16 -17 48 -42 71 -55 23 -14 48
-36 57 -49 8 -13 25 -26 36 -30 35 -11 24 -50 -29 -109 -67 -74 -74 -89 -62
-132 6 -23 6 -45 -1 -64 -9 -26 -15 -30 -49 -30 -28 0 -41 -5 -49 -19 -14 -28
-14 -28 26 -41 26 -9 39 -9 47 -1 6 6 23 11 37 11 22 0 30 8 45 43 10 23 19
58 19 77 1 31 6 37 48 58 45 23 46 24 32 50 -16 30 -19 72 -5 72 5 0 11 -13
14 -30 10 -45 71 -106 130 -128 56 -21 66 -38 48 -85 -9 -23 -16 -27 -50 -27
-31 0 -43 -5 -51 -21 -16 -29 -7 -34 58 -34 l57 0 28 53 c16 28 35 52 43 52
12 0 14 12 12 57 -3 57 -4 58 -52 90 -60 39 -71 56 -56 83 6 12 8 34 5 50 -5
21 0 37 16 59 31 42 20 84 -38 152 -94 109 -128 190 -87 206 23 9 38 -13 39
-54 0 -29 5 -40 23 -49 13 -7 32 -26 43 -43 11 -19 27 -31 40 -31 17 0 19 3
11 13 -7 7 -17 37 -23 66 -10 46 -16 55 -44 66 -17 8 -40 26 -49 40 -32 49
-76 26 -76 -41 0 -59 13 -88 74 -164 64 -78 78 -103 70 -124 -9 -22 -58 -20
-75 3 -8 10 -33 42 -56 71 l-43 52 0 112 c0 107 1 112 25 130 19 14 22 22 15
37 -13 23 -13 79 -1 79 5 0 12 -6 14 -12 3 -7 6 5 6 27 1 23 -6 51 -15 64 -16
22 -16 23 5 16 25 -8 26 -3 6 35 -18 34 -43 50 -79 50 -14 0 -26 5 -26 10 0 6
7 10 16 10 8 0 12 5 9 10 -3 6 -19 10 -36 10 -16 0 -29 5 -29 10 0 13 -11 13
-30 0z m-72 -117 c2 -8 -5 -13 -17 -13 -12 0 -21 6 -21 16 0 18 31 15 38 -3z
m-234 -254 c-3 -6 3 -21 15 -33 12 -13 25 -43 30 -67 5 -24 9 -34 10 -21 1 28
17 28 32 1 9 -17 8 -23 -2 -30 -21 -13 -52 -11 -77 7 -19 13 -22 24 -22 90 0
48 4 73 10 69 6 -4 8 -11 4 -16z"/>
<path d="M2050 2187 c0 -27 13 -36 26 -16 3 6 -1 18 -10 27 -15 15 -16 14 -16
-11z"/>
<path d="M724 2185 c-7 -17 4 -37 17 -30 12 8 12 45 -1 45 -6 0 -13 -7 -16
-15z"/>
<path d="M660 2126 c0 -8 5 -18 10 -21 6 -3 10 1 10 9 0 8 -4 18 -10 21 -5 3
-10 -1 -10 -9z"/>
<path d="M2127 2134 c-4 -4 -7 -14 -7 -23 0 -11 3 -12 11 -4 6 6 10 16 7 23
-2 6 -7 8 -11 4z"/>
<path d="M2120 2073 c0 -13 5 -23 10 -23 13 0 13 11 0 30 -8 12 -10 11 -10 -7z"/>
<path d="M2100 1986 c0 -20 5 -36 10 -36 6 0 10 13 10 29 0 17 -4 33 -10 36
-6 4 -10 -8 -10 -29z"/>
<path d="M686 1981 c-4 -7 -5 -15 -2 -18 9 -9 19 4 14 18 -4 11 -6 11 -12 0z"/>
<path d="M5850 2290 l0 -30 370 0 370 0 0 30 0 30 -370 0 -370 0 0 -30z"/>
<path d="M7000 2010 c-12 -16 -17 -30 -13 -30 5 0 22 14 38 30 22 22 25 30 13
30 -9 0 -26 -13 -38 -30z"/>
<path d="M7720 2010 c-12 -16 -17 -30 -13 -30 5 0 22 14 38 30 22 22 25 30 13
30 -9 0 -26 -13 -38 -30z"/>
<path d="M3890 2010 c0 -11 7 -20 15 -20 8 0 15 9 15 20 0 11 -7 20 -15 20 -8
0 -15 -9 -15 -20z"/>
<path d="M5290 2010 c0 -11 7 -20 15 -20 8 0 15 9 15 20 0 11 -7 20 -15 20 -8
0 -15 -9 -15 -20z"/>
<path d="M8570 1840 c0 -162 2 -190 15 -190 13 0 15 28 15 190 0 162 -2 190
-15 190 -13 0 -15 -28 -15 -190z"/>
<path d="M3470 1830 l0 -183 80 5 c126 7 170 54 170 178 0 124 -44 171 -170
178 l-80 5 0 -183z m157 143 c97 -45 96 -241 -1 -287 -23 -11 -54 -16 -84 -14
l-47 3 -3 145 c-1 79 0 150 2 157 8 19 91 16 133 -4z"/>
<path d="M6517 1990 c-44 -35 -57 -71 -57 -155 0 -91 17 -138 62 -165 35 -21
100 -26 141 -11 45 17 57 38 57 102 l0 59 -60 0 c-33 0 -60 -4 -60 -10 0 -5
20 -10 45 -10 l45 0 0 -49 c0 -40 -4 -53 -22 -65 -29 -20 -102 -20 -133 0 -68
45 -74 232 -8 284 38 30 106 27 138 -5 14 -13 25 -31 25 -40 0 -8 5 -15 10
-15 18 0 10 38 -13 66 -20 23 -34 28 -83 32 -49 3 -63 0 -87 -18z"/>
<path d="M5060 1950 c0 -25 -4 -30 -25 -30 -31 0 -33 -17 -2 -22 21 -3 22 -8
25 -112 1 -61 8 -116 14 -123 12 -15 68 -18 68 -3 0 6 -8 10 -18 10 -35 0 -42
21 -42 127 l0 103 30 0 c17 0 30 5 30 10 0 6 -13 10 -30 10 -27 0 -30 3 -30
30 0 17 -4 30 -10 30 -5 0 -10 -13 -10 -30z"/>
<path d="M3890 1785 c0 -113 2 -135 15 -135 13 0 15 22 15 135 0 113 -2 135
-15 135 -13 0 -15 -22 -15 -135z"/>
<path d="M4090 1785 c0 -113 2 -135 15 -135 12 0 15 18 15 104 0 101 1 105 26
125 15 12 35 21 45 21 11 0 19 5 19 10 0 17 -36 11 -63 -10 -14 -11 -28 -20
-31 -20 -3 0 -6 9 -6 20 0 11 -4 20 -10 20 -6 0 -10 -52 -10 -135z"/>
<path d="M4388 1905 c-38 -21 -58 -64 -58 -124 0 -62 16 -98 51 -117 36 -18
100 -18 125 0 24 18 13 31 -14 17 -61 -33 -127 2 -139 73 l-6 36 95 0 95 0 -7
41 c-4 23 -16 50 -27 60 -26 27 -81 33 -115 14z m97 -30 c14 -13 25 -33 25
-45 0 -18 -6 -20 -80 -20 l-80 0 13 33 c24 57 82 73 122 32z"/>
<path d="M4744 1911 c-43 -18 -64 -59 -64 -123 0 -98 32 -138 110 -138 30 0
47 6 65 25 25 24 33 55 15 55 -5 0 -10 -4 -10 -10 0 -38 -77 -63 -120 -40 -41
22 -53 124 -20 177 33 55 106 54 132 -2 12 -27 28 -33 28 -11 0 47 -85 88
-136 67z"/>
<path d="M5290 1785 c0 -113 2 -135 15 -135 13 0 15 22 15 135 0 113 -2 135
-15 135 -13 0 -15 -22 -15 -135z"/>
<path d="M5541 1907 c-59 -30 -83 -121 -52 -195 32 -77 152 -84 194 -12 21 35
22 121 2 160 -27 52 -93 73 -144 47z m83 -18 c55 -25 72 -122 33 -180 -19 -28
-30 -35 -63 -37 -54 -4 -85 29 -92 96 -9 95 50 153 122 121z"/>
<path d="M5860 1785 c0 -113 2 -135 15 -135 12 0 15 18 15 104 0 101 1 105 26
125 34 26 68 27 94 1 17 -17 20 -33 20 -125 0 -89 2 -105 16 -105 14 0 15 15
12 111 -3 108 -4 111 -32 136 -23 20 -37 24 -64 19 -19 -3 -42 -12 -52 -21
-22 -20 -30 -19 -30 5 0 11 -4 20 -10 20 -6 0 -10 -52 -10 -135z"/>
<path d="M6938 1905 c-38 -21 -58 -64 -58 -124 0 -62 16 -98 51 -117 36 -18
100 -18 125 0 24 18 13 31 -14 17 -61 -33 -127 2 -139 73 l-6 36 95 0 95 0 -7
41 c-4 23 -16 50 -27 60 -26 27 -81 33 -115 14z m97 -30 c14 -13 25 -33 25
-45 0 -18 -6 -20 -80 -20 l-80 0 13 33 c24 57 82 73 122 32z"/>
<path d="M7240 1785 c0 -113 2 -135 15 -135 12 0 15 18 15 104 0 101 1 105 26
125 34 26 68 27 94 1 17 -17 20 -33 20 -125 0 -89 2 -105 16 -105 14 0 15 15
12 111 -3 108 -4 111 -32 136 -23 20 -37 24 -64 19 -19 -3 -42 -12 -52 -21
-22 -20 -30 -19 -30 5 0 11 -4 20 -10 20 -6 0 -10 -52 -10 -135z"/>
<path d="M7658 1905 c-38 -21 -58 -64 -58 -124 0 -62 16 -98 51 -117 36 -18
100 -18 125 0 24 18 13 31 -14 17 -61 -33 -127 2 -139 73 l-6 36 95 0 95 0 -7
41 c-4 23 -16 50 -27 60 -26 27 -81 33 -115 14z m97 -30 c14 -13 25 -33 25
-45 0 -18 -6 -20 -80 -20 l-80 0 13 33 c24 57 82 73 122 32z"/>
<path d="M7950 1785 c0 -113 2 -135 15 -135 12 0 15 18 15 104 0 101 1 105 26
125 15 12 35 21 45 21 11 0 19 5 19 10 0 17 -36 11 -63 -10 -14 -11 -28 -20
-31 -20 -3 0 -6 9 -6 20 0 11 -4 20 -10 20 -6 0 -10 -52 -10 -135z"/>
<path d="M8254 1906 c-29 -13 -51 -43 -40 -54 3 -2 19 7 36 22 55 45 120 25
120 -38 l0 -34 -59 -4 c-80 -6 -111 -27 -111 -77 0 -47 24 -71 73 -71 41 0 87
18 88 34 0 6 4 1 9 -11 5 -13 14 -23 21 -23 7 0 10 33 7 110 -3 95 -6 112 -24
130 -26 27 -81 34 -120 16z m116 -160 c0 -25 -7 -40 -26 -55 -32 -25 -86 -27
-108 -5 -42 41 6 94 85 94 l49 0 0 -34z"/>
<path d="M8818 1905 c-38 -21 -58 -64 -58 -124 0 -62 16 -98 51 -117 36 -18
100 -18 125 0 24 18 13 31 -14 17 -61 -33 -127 2 -139 73 l-6 36 95 0 95 0 -7
41 c-4 23 -16 50 -27 60 -26 27 -81 33 -115 14z m97 -30 c14 -13 25 -33 25
-45 0 -18 -6 -20 -80 -20 l-80 0 13 33 c24 57 82 73 122 32z"/>
<path d="M5710 1453 c0 -73 -1 -75 -18 -60 -29 27 -78 32 -108 12 -74 -49 -70
-213 7 -245 32 -14 75 -6 101 17 14 13 17 12 23 -6 18 -56 25 -7 25 169 0 162
-2 190 -15 190 -12 0 -15 -15 -15 -77z m-26 -74 c24 -19 26 -26 26 -94 0 -68
-2 -75 -26 -94 -74 -58 -149 21 -125 131 17 73 72 99 125 57z"/>
<path d="M6480 1340 c0 -162 2 -190 15 -190 13 0 15 28 15 190 0 162 -2 190
-15 190 -13 0 -15 -28 -15 -190z"/>
<path d="M5948 1405 c-38 -21 -58 -64 -58 -124 0 -62 16 -98 51 -117 36 -18
100 -18 125 0 24 18 13 31 -14 17 -61 -33 -127 2 -139 73 l-6 36 95 0 95 0 -7
41 c-4 23 -16 50 -27 60 -26 27 -81 33 -115 14z m97 -30 c14 -13 25 -33 25
-45 0 -18 -6 -20 -80 -20 l-80 0 13 33 c24 57 82 73 122 32z"/>
<path d="M6724 1406 c-29 -13 -51 -43 -40 -54 3 -2 19 7 36 22 55 45 120 25
120 -38 l0 -34 -59 -4 c-80 -6 -111 -27 -111 -77 0 -47 24 -71 73 -71 41 0 87
18 88 34 0 6 4 1 9 -11 5 -13 14 -23 21 -23 7 0 10 33 7 110 -3 95 -6 112 -24
130 -26 27 -81 34 -120 16z m116 -160 c0 -25 -7 -40 -26 -55 -32 -25 -86 -27
-108 -5 -42 41 6 94 85 94 l49 0 0 -34z"/>
<path d="M6060 1010 c0 -11 7 -20 15 -20 8 0 15 9 15 20 0 11 -7 20 -15 20 -8
0 -15 -9 -15 -20z"/>
<path d="M8280 1010 c0 -11 7 -20 15 -20 8 0 15 9 15 20 0 11 -7 20 -15 20 -8
0 -15 -9 -15 -20z"/>
<path d="M9570 840 c0 -162 2 -190 15 -190 13 0 15 28 15 190 0 162 -2 190
-15 190 -13 0 -15 -28 -15 -190z"/>
<path d="M2470 830 l0 -183 80 5 c126 7 170 54 170 178 0 124 -44 171 -170
178 l-80 5 0 -183z m157 143 c97 -45 96 -241 -1 -287 -23 -11 -54 -16 -84 -14
l-47 3 -3 145 c-1 79 0 150 2 157 8 19 91 16 133 -4z"/>
<path d="M7250 830 c0 -113 4 -180 10 -180 6 0 10 57 10 150 0 83 3 150 8 149
4 0 51 -67 104 -150 56 -85 104 -149 113 -149 13 0 15 25 15 180 0 153 -2 180
-15 180 -13 0 -15 -24 -15 -157 l-1 -158 -102 157 c-56 87 -108 157 -114 158
-10 0 -13 -42 -13 -180z"/>
<path d="M5230 950 c0 -25 -4 -30 -25 -30 -31 0 -33 -17 -2 -22 21 -3 22 -8
25 -112 1 -61 8 -116 14 -123 12 -15 68 -18 68 -3 0 6 -8 10 -18 10 -35 0 -42
21 -42 127 l0 103 30 0 c17 0 30 5 30 10 0 6 -13 10 -30 10 -27 0 -30 3 -30
30 0 17 -4 30 -10 30 -5 0 -10 -13 -10 -30z"/>
<path d="M5840 950 c0 -25 -4 -30 -25 -30 -31 0 -33 -17 -2 -22 21 -3 22 -8
25 -112 1 -61 8 -116 14 -123 12 -15 68 -18 68 -3 0 6 -8 10 -18 10 -35 0 -42
21 -42 127 l0 103 30 0 c17 0 30 5 30 10 0 6 -13 10 -30 10 -27 0 -30 3 -30
30 0 17 -4 30 -10 30 -5 0 -10 -13 -10 -30z"/>
<path d="M8050 950 c0 -25 -4 -30 -25 -30 -31 0 -33 -17 -2 -22 21 -3 22 -8
25 -112 1 -61 8 -116 14 -123 12 -15 68 -18 68 -3 0 6 -8 10 -18 10 -35 0 -42
21 -42 127 l0 103 30 0 c17 0 30 5 30 10 0 6 -13 10 -30 10 -27 0 -30 3 -30
30 0 17 -4 30 -10 30 -5 0 -10 -13 -10 -30z"/>
<path d="M2941 907 c-59 -30 -83 -121 -52 -195 32 -77 152 -84 194 -12 21 35
22 121 2 160 -27 52 -93 73 -144 47z m83 -18 c55 -25 72 -122 33 -180 -19 -28
-30 -35 -63 -37 -54 -4 -85 29 -92 96 -9 95 50 153 122 121z"/>
<path d="M3314 911 c-43 -18 -64 -59 -64 -123 0 -98 32 -138 110 -138 30 0 47
6 65 25 25 24 33 55 15 55 -5 0 -10 -4 -10 -10 0 -38 -77 -63 -120 -40 -41 22
-53 124 -20 177 33 55 106 54 132 -2 12 -27 28 -33 28 -11 0 47 -85 88 -136
67z"/>
<path d="M3600 826 c0 -101 12 -151 40 -166 38 -20 120 -6 120 21 0 6 -7 6
-19 -1 -30 -16 -76 -12 -94 8 -14 15 -17 40 -17 125 0 88 -3 107 -15 107 -12
0 -15 -17 -15 -94z"/>
<path d="M3768 808 c-3 -114 3 -158 22 -158 6 0 10 49 10 135 0 111 -3 135
-14 135 -12 0 -15 -23 -18 -112z"/>
<path d="M3970 785 c0 -113 2 -135 15 -135 12 0 15 18 15 104 0 101 1 105 26
125 35 27 59 26 89 -4 23 -22 25 -31 25 -125 0 -55 4 -100 9 -100 5 0 11 45
13 101 3 96 4 102 31 125 34 29 57 30 88 5 22 -18 24 -28 27 -125 2 -58 8
-106 13 -106 14 0 11 201 -4 229 -24 47 -97 52 -136 9 l-20 -21 -20 24 c-23
29 -89 33 -118 6 -25 -22 -33 -22 -33 3 0 11 -4 20 -10 20 -6 0 -10 -52 -10
-135z"/>
<path d="M4548 905 c-38 -21 -58 -64 -58 -124 0 -62 16 -98 51 -117 36 -18
100 -18 125 0 24 18 13 31 -14 17 -61 -33 -127 2 -139 73 l-6 36 95 0 95 0 -7
41 c-4 23 -16 50 -27 60 -26 27 -81 33 -115 14z m97 -30 c14 -13 25 -33 25
-45 0 -18 -6 -20 -80 -20 l-80 0 13 33 c24 57 82 73 122 32z"/>
<path d="M4850 785 c0 -113 2 -135 15 -135 12 0 15 18 15 104 0 101 1 105 26
125 34 26 68 27 94 1 17 -17 20 -33 20 -125 0 -89 2 -105 16 -105 14 0 15 15
12 111 -3 108 -4 111 -32 136 -23 20 -37 24 -64 19 -19 -3 -42 -12 -52 -21
-22 -20 -30 -19 -30 5 0 11 -4 20 -10 20 -6 0 -10 -52 -10 -135z"/>
<path d="M5504 906 c-29 -13 -51 -43 -40 -54 3 -2 19 7 36 22 55 45 120 25
120 -38 l0 -34 -59 -4 c-80 -6 -111 -27 -111 -77 0 -47 24 -71 73 -71 41 0 87
18 88 34 0 6 4 1 9 -11 5 -13 14 -23 21 -23 7 0 10 33 7 110 -3 95 -6 112 -24
130 -26 27 -81 34 -120 16z m116 -160 c0 -25 -7 -40 -26 -55 -32 -25 -86 -27
-108 -5 -42 41 6 94 85 94 l49 0 0 -34z"/>
<path d="M6060 785 c0 -113 2 -135 15 -135 13 0 15 22 15 135 0 113 -2 135
-15 135 -13 0 -15 -22 -15 -135z"/>
<path d="M6321 907 c-59 -30 -83 -121 -52 -195 32 -77 152 -84 194 -12 21 35
22 121 2 160 -27 52 -93 73 -144 47z m83 -18 c55 -25 72 -122 33 -180 -19 -28
-30 -35 -63 -37 -54 -4 -85 29 -92 96 -9 95 50 153 122 121z"/>
<path d="M6640 785 c0 -113 2 -135 15 -135 12 0 15 18 15 104 0 101 1 105 26
125 34 26 68 27 94 1 17 -17 20 -33 20 -125 0 -89 2 -105 16 -105 14 0 15 15
12 111 -3 108 -4 111 -32 136 -23 20 -37 24 -64 19 -19 -3 -42 -12 -52 -21
-22 -20 -30 -19 -30 5 0 11 -4 20 -10 20 -6 0 -10 -52 -10 -135z"/>
<path d="M7724 906 c-29 -13 -51 -43 -40 -54 3 -2 19 7 36 22 55 45 120 25
120 -38 l0 -34 -59 -4 c-80 -6 -111 -27 -111 -77 0 -47 24 -71 73 -71 41 0 87
18 88 34 0 6 4 1 9 -11 5 -13 14 -23 21 -23 7 0 10 33 7 110 -3 95 -6 112 -24
130 -26 27 -81 34 -120 16z m116 -160 c0 -25 -7 -40 -26 -55 -32 -25 -86 -27
-108 -5 -42 41 6 94 85 94 l49 0 0 -34z"/>
<path d="M8280 785 c0 -113 2 -135 15 -135 13 0 15 22 15 135 0 113 -2 135
-15 135 -13 0 -15 -22 -15 -135z"/>
<path d="M8531 907 c-59 -30 -83 -121 -52 -195 32 -77 152 -84 194 -12 21 35
22 121 2 160 -27 52 -93 73 -144 47z m83 -18 c55 -25 72 -122 33 -180 -19 -28
-30 -35 -63 -37 -54 -4 -85 29 -92 96 -9 95 50 153 122 121z"/>
<path d="M8850 785 c0 -113 2 -135 15 -135 12 0 15 18 15 104 0 101 1 105 26
125 34 26 68 27 94 1 17 -17 20 -33 20 -125 0 -89 2 -105 16 -105 14 0 15 15
12 111 -3 108 -4 111 -32 136 -23 20 -37 24 -64 19 -19 -3 -42 -12 -52 -21
-22 -20 -30 -19 -30 5 0 11 -4 20 -10 20 -6 0 -10 -52 -10 -135z"/>
<path d="M9264 906 c-29 -13 -51 -43 -40 -54 3 -2 19 7 36 22 55 45 120 25
120 -38 l0 -34 -59 -4 c-80 -6 -111 -27 -111 -77 0 -47 24 -71 73 -71 41 0 87
18 88 34 0 6 4 1 9 -11 5 -13 14 -23 21 -23 7 0 10 33 7 110 -3 95 -6 112 -24
130 -26 27 -81 34 -120 16z m116 -160 c0 -25 -7 -40 -26 -55 -32 -25 -86 -27
-108 -5 -42 41 6 94 85 94 l49 0 0 -34z"/>
<path d="M9818 905 c-38 -21 -58 -64 -58 -124 0 -62 16 -98 51 -117 36 -18
100 -18 125 0 24 18 13 31 -14 17 -61 -33 -127 2 -139 73 l-6 36 95 0 95 0 -7
41 c-4 23 -16 50 -27 60 -26 27 -81 33 -115 14z m97 -30 c14 -13 25 -33 25
-45 0 -18 -6 -20 -80 -20 l-80 0 13 33 c24 57 82 73 122 32z"/>
</g>
</svg>
